{
  "type": "array",
  "minItems": 1,
  "items": {
    "type": "object",
    "required": ["url", "artist_name", "name", "image"],
    "properties": {
      "url": {
        "type": "string"
      },
      "artist_name": {
        "type": "string"
      },
      "name": {
        "type": "string"
      },
      "image": {
        "type": "string"
      }
    }
  }
}
